{
  "$schema": "http://json-schema.org/draft-07/schema#",
  "id": "Contact",
  "type": "object",
  "properties": {
    "ID":
    {
      "type": "string",
      "description":"Contacts ID"
    },
    "First Name":
    {
      "type": "string",
      "description":"Contacts First Name"
    },
    "Last Name":
    {
      "type": "string",
      "description":"Contacts Last Name"
    },
    "Address":
    {
      "type": "string",
      "description":"Contacts Address"
    },
    "State":
    {
      "type": "string",
      "description":"Contacts State"
    },
    "Zip":
    {
      "type": "string",
      "description":"Contacts Zip"
    },
    "Phone":
    {
      "type": "string",
      "description":"Contacts Phone"
    }
  }
}